Group 9 – Esports vs Software Engineers
…
players_game_summary

# A tibble: 29 × 4
   highest_paying_game                 n_players total_earnings total_earnings_m
   <chr>                                   <int>          <dbl>            <dbl>
 1 "Dota 2"                                  203     323485229.            323. 
 2 "Counter-Strike: Global Offensive"        121      94929534.             94.9
 3 "Fortnite"                                 87      68122861.             68.1
 4 "Arena of Valor"                           65      54909478.             54.9
 5 "League of Legends"                        73      40679562.             40.7
 6 "PLAYERUNKNOWN'S BATTLEGROUNDS Mob…        51      25583769.             25.6
 7 "StarCraft II"                             37      23150349.             23.2
 8 "PLAYERUNKNOWNâ\u0080\u0099S BATTL…        41      22587512.             22.6
 9 "Rocket League"                            38      19133844.             19.1
10 "Rainbow Six Siege"                        36      16030899.             16.0
# ℹ 19 more rows
…
